<?xml version="1.0" encoding="UTF-8" standalone="no"?>
<!DOCTYPE svg PUBLIC "-//W3C//DTD SVG 1.1//EN" "http://www.w3.org/Graphics/SVG/1.1/DTD/svg11.dtd">
<svg width="100%" height="100%" viewBox="0 0 512 512" version="1.1" xmlns="http://www.w3.org/2000/svg" xmlns:xlink="http://www.w3.org/1999/xlink" xml:space="preserve" xmlns:serif="http://www.serif.com/" style="fill-rule:evenodd;clip-rule:evenodd;stroke-linejoin:round;stroke-miterlimit:2;">
    <g transform="matrix(1.04167,0,0,1.04167,-10.6458,-10.6875)">
        <path d="M83.355,85.41C39.598,129.168 15.5,187.347 15.5,249.229C15.5,311.111 39.598,369.289 83.355,413.046C96.474,426.166 110.899,437.504 126.323,446.969L131.337,449.865L154.491,409.759C99.102,377.711 61.835,317.824 61.835,249.229C61.835,146.869 144.814,63.89 247.174,63.89C280.938,63.89 312.593,72.923 339.857,88.698L363.012,48.594L357.129,45.198C323.74,27.147 286.196,17.555 247.174,17.555C185.292,17.555 127.113,41.653 83.355,85.41" style="fill:rgb(77,168,218);fill-rule:nonzero;"/>
    </g>
    <g transform="matrix(1.04167,0,0,1.04167,-14.8125,-11.7292)">
        <path d="M134.502,181.836L227.172,181.836L227.172,291.466L273.506,211.212L273.506,181.836L290.466,181.836L317.217,135.502L134.502,135.502L134.502,181.836Z" style="fill:rgb(77,168,218);"/>
    </g>
    <g transform="matrix(1.04167,0,0,1.04167,-10.6458,-10.6875)">
        <path d="M427.644,427.589C471.401,383.831 495.5,325.653 495.5,263.771C495.5,201.888 471.401,143.709 427.644,99.952C414.527,86.835 400.106,75.5 384.686,66.035L379.663,63.135L356.508,103.241C411.897,135.288 449.165,195.176 449.165,263.771C449.165,366.131 366.186,449.11 263.826,449.11C230.061,449.11 198.407,440.077 171.143,424.301L147.988,464.406L153.857,467.795C187.249,485.851 224.798,495.445 263.826,495.445C325.708,495.445 383.886,471.346 427.644,427.589" style="fill:rgb(247,146,38);fill-rule:nonzero;"/>
    </g>
    <g transform="matrix(1.04167,0,0,1.04167,-10.6458,-0.270833)">
        <path d="M376.498,144.769L327.539,144.769L300.788,191.104L376.498,191.104L376.498,144.769Z" style="fill:rgb(247,146,38);stroke:rgb(247,146,38);stroke-width:1px;"/>
    </g>
    <g transform="matrix(1.04167,0,0,1.04167,-10.6458,-0.270833)">
        <path d="M237.493,376.443L376.498,376.443L376.498,330.108L283.828,330.147L283.828,283.773L376.498,283.773L376.498,237.438L283.828,237.438L283.828,220.479L237.493,300.734L237.493,376.443Z" style="fill:rgb(247,146,38);stroke:rgb(247,146,38);stroke-width:1px;"/>
    </g>
</svg>
